%YAML 1.1
%TAG !u! tag:unity3d.com,2011:
--- !u!114 &11400000
MonoBehaviour:
  m_ObjectHideFlags: 0
  m_CorrespondingSourceObject: {fileID: 0}
  m_PrefabInstance: {fileID: 0}
  m_PrefabAsset: {fileID: 0}
  m_GameObject: {fileID: 0}
  m_Enabled: 1
  m_EditorHideFlags: 0
  m_Script: {fileID: 11500000, guid: 6a10348e4b94490fabd38e6cfd20731e, type: 3}
  m_Name: _MeleeUsualAttackState
  m_EditorClassIdentifier: 
  _damage: 2
  _delay: 1
  _target: {fileID: 0}
